{
  "CodeKitInfo" : "This is a CodeKit project configuration file. It is designed to sync project settings across multiple machines. Modifying the contents of this file can be a poor life decision if you don't know what you're doing. This file is not useful unless accompanied by the project that created it in CodeKit. For more information, see: http:\/\/incident57.com\/codekit",
  "creatorBuild" : "8403",
  "files" : {
    "\/scss\/bootstrap\/_scaffolding.scss" : {
      "ignoreWasSetByUser" : 0,
      "ignore" : 1,
      "hidden" : 0,
      "outputPathIsSetByUser" : 0,
      "inputAbbreviatedPath" : "\/scss\/bootstrap\/_scaffolding.scss",
      "outputStyle" : 0,
      "shouldRunBless" : 0,
      "outputAbbreviatedPath" : "\/scss\/css\/_scaffolding.css",
      "fileType" : 4,
      "debugStyle" : 0
    },
    "\/scss\/bootstrap\/_responsive-767px-max.scss" : {
      "ignoreWasSetByUser" : 0,
      "ignore" : 1,
      "hidden" : 0,
      "outputPathIsSetByUser" : 0,
      "inputAbbreviatedPath" : "\/scss\/bootstrap\/_responsive-767px-max.scss",
      "outputStyle" : 0,
      "shouldRunBless" : 0,
      "outputAbbreviatedPath" : "\/scss\/css\/_responsive-767px-max.css",
      "fileType" : 4,
      "debugStyle" : 0
    },
    "\/img\/circle-show-all.png" : {
      "ignoreWasSetByUser" : 0,
      "ignore" : 0,
      "hidden" : 0,
      "outputPathIsSetByUser" : 0,
      "inputAbbreviatedPath" : "\/img\/circle-show-all.png",
      "processed" : 0,
      "outputAbbreviatedPath" : "\/img\/circle-show-all.png",
      "initialSize" : 20694,
      "fileType" : 8192
    },
    "\/page-sitemap.php" : {
      "ignoreWasSetByUser" : 0,
      "ignore" : 0,
      "hidden" : 0,
      "outputPathIsSetByUser" : 0,
      "inputAbbreviatedPath" : "\/page-sitemap.php",
      "outputAbbreviatedPath" : "No Output Path",
      "fileType" : 2048
    },
    "\/scss\/bootstrap\/_close.scss" : {
      "ignoreWasSetByUser" : 0,
      "ignore" : 1,
      "hidden" : 0,
      "outputPathIsSetByUser" : 0,
      "inputAbbreviatedPath" : "\/scss\/bootstrap\/_close.scss",
      "outputStyle" : 0,
      "shouldRunBless" : 0,
      "outputAbbreviatedPath" : "\/scss\/css\/_close.css",
      "fileType" : 4,
      "debugStyle" : 0
    },
    "\/js\/plugins\/bootstrap\/bootstrap-typeahead-ck.js" : {
      "ignoreWasSetByUser" : 0,
      "ignore" : 1,
      "hidden" : 0,
      "outputPathIsSetByUser" : 0,
      "inputAbbreviatedPath" : "\/js\/plugins\/bootstrap\/bootstrap-typeahead-ck.js",
      "outputStyle" : 1,
      "syntaxCheckerStyle" : 1,
      "outputAbbreviatedPath" : "\/js\/plugins\/bootstrap\/bootstrap-typeahead-ck-ck.js",
      "fileType" : 64
    },
    "\/searchform.php" : {
      "ignoreWasSetByUser" : 0,
      "ignore" : 0,
      "hidden" : 0,
      "outputPathIsSetByUser" : 0,
      "inputAbbreviatedPath" : "\/searchform.php",
      "outputAbbreviatedPath" : "No Output Path",
      "fileType" : 2048
    },
    "\/js\/plugins\/bootstrap\/bootstrap-transition-ck.js" : {
      "ignoreWasSetByUser" : 0,
      "ignore" : 1,
      "hidden" : 0,
      "outputPathIsSetByUser" : 0,
      "inputAbbreviatedPath" : "\/js\/plugins\/bootstrap\/bootstrap-transition-ck.js",
      "outputStyle" : 1,
      "syntaxCheckerStyle" : 1,
      "outputAbbreviatedPath" : "\/js\/plugins\/bootstrap\/bootstrap-transition-ck-ck.js",
      "fileType" : 64
    },
    "\/scss\/bootstrap\/_progress-bars.scss" : {
      "ignoreWasSetByUser" : 0,
      "ignore" : 0,
      "hidden" : 0,
      "outputPathIsSetByUser" : 0,
      "inputAbbreviatedPath" : "\/scss\/bootstrap\/_progress-bars.scss",
      "outputStyle" : 0,
      "shouldRunBless" : 0,
      "outputAbbreviatedPath" : "\/scss\/css\/_progress-bars.css",
      "fileType" : 4,
      "debugStyle" : 0
    },
    "\/scss\/bootstrap\/_responsive-navbar.scss" : {
      "ignoreWasSetByUser" : 0,
      "ignore" : 1,
      "hidden" : 0,
      "outputPathIsSetByUser" : 0,
      "inputAbbreviatedPath" : "\/scss\/bootstrap\/_responsive-navbar.scss",
      "outputStyle" : 0,
      "shouldRunBless" : 0,
      "outputAbbreviatedPath" : "\/scss\/css\/_responsive-navbar.css",
      "fileType" : 4,
      "debugStyle" : 0
    },
    "\/index.php" : {
      "ignoreWasSetByUser" : 0,
      "ignore" : 0,
      "hidden" : 0,
      "outputPathIsSetByUser" : 0,
      "inputAbbreviatedPath" : "\/index.php",
      "outputAbbreviatedPath" : "No Output Path",
      "fileType" : 2048
    },
    "\/js\/plugins\/bootstrap\/bootstrap-carousel.js" : {
      "ignoreWasSetByUser" : 0,
      "ignore" : 0,
      "hidden" : 0,
      "outputPathIsSetByUser" : 0,
      "inputAbbreviatedPath" : "\/js\/plugins\/bootstrap\/bootstrap-carousel.js",
      "outputStyle" : 1,
      "syntaxCheckerStyle" : 1,
      "outputAbbreviatedPath" : "\/js\/plugins\/bootstrap\/bootstrap-carousel-ck.js",
      "fileType" : 64
    },
    "\/scss\/bootstrap.scss" : {
      "ignoreWasSetByUser" : 1,
      "ignore" : 1,
      "hidden" : 0,
      "outputPathIsSetByUser" : 1,
      "inputAbbreviatedPath" : "\/scss\/bootstrap.scss",
      "outputStyle" : 0,
      "shouldRunBless" : 0,
      "outputAbbreviatedPath" : "\/css\/bootstrap.css",
      "fileType" : 4,
      "debugStyle" : 0
    },
    "\/layouts\/content-sidebar.css" : {
      "ignoreWasSetByUser" : 0,
      "ignore" : 0,
      "hidden" : 0,
      "outputPathIsSetByUser" : 0,
      "inputAbbreviatedPath" : "\/layouts\/content-sidebar.css",
      "outputAbbreviatedPath" : "No Output Path",
      "fileType" : 16
    },
    "\/js\/plugins\/jquery.fitvids.js" : {
      "ignoreWasSetByUser" : 0,
      "ignore" : 1,
      "hidden" : 0,
      "outputPathIsSetByUser" : 0,
      "inputAbbreviatedPath" : "\/js\/plugins\/jquery.fitvids.js",
      "outputStyle" : 1,
      "syntaxCheckerStyle" : 1,
      "outputAbbreviatedPath" : "\/js\/plugins\/jquery.fitvids-ck.js",
      "fileType" : 64
    },
    "\/js\/plugins\/jquery.jSlabify.js" : {
      "ignoreWasSetByUser" : 0,
      "ignore" : 0,
      "hidden" : 0,
      "outputPathIsSetByUser" : 0,
      "inputAbbreviatedPath" : "\/js\/plugins\/jquery.jSlabify.js",
      "outputStyle" : 1,
      "syntaxCheckerStyle" : 1,
      "outputAbbreviatedPath" : "\/js\/plugins\/jquery.jSlabify-ck.js",
      "fileType" : 64
    },
    "\/scss\/bootstrap\/_labels-badges.scss" : {
      "ignoreWasSetByUser" : 0,
      "ignore" : 1,
      "hidden" : 0,
      "outputPathIsSetByUser" : 0,
      "inputAbbreviatedPath" : "\/scss\/bootstrap\/_labels-badges.scss",
      "outputStyle" : 0,
      "shouldRunBless" : 0,
      "outputAbbreviatedPath" : "\/scss\/css\/_labels-badges.css",
      "fileType" : 4,
      "debugStyle" : 0
    },
    "\/inc\/custom-header.php" : {
      "ignoreWasSetByUser" : 0,
      "ignore" : 0,
      "hidden" : 0,
      "outputPathIsSetByUser" : 0,
      "inputAbbreviatedPath" : "\/inc\/custom-header.php",
      "outputAbbreviatedPath" : "No Output Path",
      "fileType" : 2048
    },
    "\/scss\/bootstrap\/_hero-unit.scss" : {
      "ignoreWasSetByUser" : 0,
      "ignore" : 0,
      "hidden" : 0,
      "outputPathIsSetByUser" : 0,
      "inputAbbreviatedPath" : "\/scss\/bootstrap\/_hero-unit.scss",
      "outputStyle" : 0,
      "shouldRunBless" : 0,
      "outputAbbreviatedPath" : "\/scss\/css\/_hero-unit.css",
      "fileType" : 4,
      "debugStyle" : 0
    },
    "\/js\/plugins\/bootstrap\/bootstrap-tooltip.js" : {
      "ignoreWasSetByUser" : 0,
      "ignore" : 0,
      "hidden" : 0,
      "outputPathIsSetByUser" : 0,
      "inputAbbreviatedPath" : "\/js\/plugins\/bootstrap\/bootstrap-tooltip.js",
      "outputStyle" : 1,
      "syntaxCheckerStyle" : 1,
      "outputAbbreviatedPath" : "\/js\/plugins\/bootstrap\/bootstrap-tooltip-ck.js",
      "fileType" : 64
    },
    "\/js\/plugins\/jSlabify-master\/livedemo.html" : {
      "ignoreWasSetByUser" : 0,
      "ignore" : 0,
      "hidden" : 0,
      "outputPathIsSetByUser" : 0,
      "inputAbbreviatedPath" : "\/js\/plugins\/jSlabify-master\/livedemo.html",
      "outputAbbreviatedPath" : "No Output Path",
      "fileType" : 2048
    },
    "\/scss\/bootstrap\/_modals.scss" : {
      "ignoreWasSetByUser" : 0,
      "ignore" : 0,
      "hidden" : 0,
      "outputPathIsSetByUser" : 0,
      "inputAbbreviatedPath" : "\/scss\/bootstrap\/_modals.scss",
      "outputStyle" : 0,
      "shouldRunBless" : 0,
      "outputAbbreviatedPath" : "\/scss\/css\/_modals.css",
      "fileType" : 4,
      "debugStyle" : 0
    },
    "\/js\/plugins\/bootstrap\/bootstrap-transition.js" : {
      "ignoreWasSetByUser" : 0,
      "ignore" : 0,
      "hidden" : 0,
      "outputPathIsSetByUser" : 0,
      "inputAbbreviatedPath" : "\/js\/plugins\/bootstrap\/bootstrap-transition.js",
      "outputStyle" : 1,
      "syntaxCheckerStyle" : 1,
      "outputAbbreviatedPath" : "\/js\/plugins\/bootstrap\/bootstrap-transition-ck.js",
      "fileType" : 64
    },
    "\/css\/custom-editor-style.css" : {
      "ignoreWasSetByUser" : 0,
      "ignore" : 0,
      "hidden" : 0,
      "outputPathIsSetByUser" : 0,
      "inputAbbreviatedPath" : "\/css\/custom-editor-style.css",
      "outputAbbreviatedPath" : "No Output Path",
      "fileType" : 16
    },
    "\/js\/plugins\/bootstrap\/bootstrap-modal-ck.js" : {
      "ignoreWasSetByUser" : 0,
      "ignore" : 1,
      "hidden" : 0,
      "outputPathIsSetByUser" : 0,
      "inputAbbreviatedPath" : "\/js\/plugins\/bootstrap\/bootstrap-modal-ck.js",
      "outputStyle" : 1,
      "syntaxCheckerStyle" : 1,
      "outputAbbreviatedPath" : "\/js\/plugins\/bootstrap\/bootstrap-modal-ck-ck.js",
      "fileType" : 64
    },
    "\/js\/plugins\/bootstrap\/bootstrap-typeahead.js" : {
      "ignoreWasSetByUser" : 0,
      "ignore" : 0,
      "hidden" : 0,
      "outputPathIsSetByUser" : 0,
      "inputAbbreviatedPath" : "\/js\/plugins\/bootstrap\/bootstrap-typeahead.js",
      "outputStyle" : 1,
      "syntaxCheckerStyle" : 1,
      "outputAbbreviatedPath" : "\/js\/plugins\/bootstrap\/bootstrap-typeahead-ck.js",
      "fileType" : 64
    },
    "\/js\/plugins\/jSlabify-master\/index.html" : {
      "ignoreWasSetByUser" : 0,
      "ignore" : 0,
      "hidden" : 0,
      "outputPathIsSetByUser" : 0,
      "inputAbbreviatedPath" : "\/js\/plugins\/jSlabify-master\/index.html",
      "outputAbbreviatedPath" : "No Output Path",
      "fileType" : 2048
    },
    "\/js\/plugins\/bootstrap\/bootstrap-button.js" : {
      "ignoreWasSetByUser" : 0,
      "ignore" : 0,
      "hidden" : 0,
      "outputPathIsSetByUser" : 0,
      "inputAbbreviatedPath" : "\/js\/plugins\/bootstrap\/bootstrap-button.js",
      "outputStyle" : 1,
      "syntaxCheckerStyle" : 1,
      "outputAbbreviatedPath" : "\/js\/plugins\/bootstrap\/bootstrap-button-ck.js",
      "fileType" : 64
    },
    "\/sidebar.php" : {
      "ignoreWasSetByUser" : 0,
      "ignore" : 0,
      "hidden" : 0,
      "outputPathIsSetByUser" : 0,
      "inputAbbreviatedPath" : "\/sidebar.php",
      "outputAbbreviatedPath" : "No Output Path",
      "fileType" : 2048
    },
    "\/content.php" : {
      "ignoreWasSetByUser" : 0,
      "ignore" : 0,
      "hidden" : 0,
      "outputPathIsSetByUser" : 0,
      "inputAbbreviatedPath" : "\/content.php",
      "outputAbbreviatedPath" : "No Output Path",
      "fileType" : 2048
    },
    "\/img\/boy1.png" : {
      "ignoreWasSetByUser" : 0,
      "ignore" : 0,
      "hidden" : 0,
      "outputPathIsSetByUser" : 0,
      "inputAbbreviatedPath" : "\/img\/boy1.png",
      "processed" : 0,
      "outputAbbreviatedPath" : "\/img\/boy1.png",
      "initialSize" : 37464,
      "fileType" : 8192
    },
    "\/scss\/responsive.scss" : {
      "ignoreWasSetByUser" : 0,
      "ignore" : 1,
      "hidden" : 0,
      "outputPathIsSetByUser" : 0,
      "inputAbbreviatedPath" : "\/scss\/responsive.scss",
      "outputStyle" : 0,
      "shouldRunBless" : 0,
      "outputAbbreviatedPath" : "\/css\/responsive.css",
      "fileType" : 4,
      "debugStyle" : 0
    },
    "\/scss\/bootstrap\/_pager.scss" : {
      "ignoreWasSetByUser" : 0,
      "ignore" : 0,
      "hidden" : 0,
      "outputPathIsSetByUser" : 0,
      "inputAbbreviatedPath" : "\/scss\/bootstrap\/_pager.scss",
      "outputStyle" : 0,
      "shouldRunBless" : 0,
      "outputAbbreviatedPath" : "\/scss\/css\/_pager.css",
      "fileType" : 4,
      "debugStyle" : 0
    },
    "\/img\/stripes-green.png" : {
      "ignoreWasSetByUser" : 0,
      "ignore" : 0,
      "hidden" : 0,
      "outputPathIsSetByUser" : 0,
      "inputAbbreviatedPath" : "\/img\/stripes-green.png",
      "processed" : 0,
      "outputAbbreviatedPath" : "\/img\/stripes-green.png",
      "initialSize" : 2712,
      "fileType" : 8192
    },
    "\/scss\/bootstrap\/_buttons.scss" : {
      "ignoreWasSetByUser" : 0,
      "ignore" : 1,
      "hidden" : 0,
      "outputPathIsSetByUser" : 0,
      "inputAbbreviatedPath" : "\/scss\/bootstrap\/_buttons.scss",
      "outputStyle" : 0,
      "shouldRunBless" : 0,
      "outputAbbreviatedPath" : "\/scss\/css\/_buttons.css",
      "fileType" : 4,
      "debugStyle" : 0
    },
    "\/page.php" : {
      "ignoreWasSetByUser" : 0,
      "ignore" : 0,
      "hidden" : 0,
      "outputPathIsSetByUser" : 0,
      "inputAbbreviatedPath" : "\/page.php",
      "outputAbbreviatedPath" : "No Output Path",
      "fileType" : 2048
    },
    "\/fonts\/alphaechotestgelaende-regular-demo.html" : {
      "ignoreWasSetByUser" : 0,
      "ignore" : 0,
      "hidden" : 0,
      "outputPathIsSetByUser" : 0,
      "inputAbbreviatedPath" : "\/fonts\/alphaechotestgelaende-regular-demo.html",
      "outputAbbreviatedPath" : "No Output Path",
      "fileType" : 2048
    },
    "\/scss\/bootstrap\/_sprites.scss" : {
      "ignoreWasSetByUser" : 0,
      "ignore" : 1,
      "hidden" : 0,
      "outputPathIsSetByUser" : 0,
      "inputAbbreviatedPath" : "\/scss\/bootstrap\/_sprites.scss",
      "outputStyle" : 0,
      "shouldRunBless" : 0,
      "outputAbbreviatedPath" : "\/scss\/css\/_sprites.css",
      "fileType" : 4,
      "debugStyle" : 0
    },
    "\/style.css" : {
      "ignoreWasSetByUser" : 0,
      "ignore" : 1,
      "hidden" : 0,
      "outputPathIsSetByUser" : 0,
      "inputAbbreviatedPath" : "\/style.css",
      "outputAbbreviatedPath" : "No Output Path",
      "fileType" : 16
    },
    "\/header-mainnav.php" : {
      "ignoreWasSetByUser" : 0,
      "ignore" : 0,
      "hidden" : 0,
      "outputPathIsSetByUser" : 0,
      "inputAbbreviatedPath" : "\/header-mainnav.php",
      "outputAbbreviatedPath" : "No Output Path",
      "fileType" : 2048
    },
    "\/scss\/_h5boilerplate.scss" : {
      "ignoreWasSetByUser" : 0,
      "ignore" : 1,
      "hidden" : 0,
      "outputPathIsSetByUser" : 0,
      "inputAbbreviatedPath" : "\/scss\/_h5boilerplate.scss",
      "outputStyle" : 0,
      "shouldRunBless" : 0,
      "outputAbbreviatedPath" : "\/css\/_h5boilerplate.css",
      "fileType" : 4,
      "debugStyle" : 0
    },
    "\/image.php" : {
      "ignoreWasSetByUser" : 0,
      "ignore" : 0,
      "hidden" : 0,
      "outputPathIsSetByUser" : 0,
      "inputAbbreviatedPath" : "\/image.php",
      "outputAbbreviatedPath" : "No Output Path",
      "fileType" : 2048
    },
    "\/content-teaser-video.php" : {
      "ignoreWasSetByUser" : 0,
      "ignore" : 0,
      "hidden" : 0,
      "outputPathIsSetByUser" : 0,
      "inputAbbreviatedPath" : "\/content-teaser-video.php",
      "outputAbbreviatedPath" : "No Output Path",
      "fileType" : 2048
    },
    "\/scss\/bootstrap\/_thumbnails.scss" : {
      "ignoreWasSetByUser" : 0,
      "ignore" : 1,
      "hidden" : 0,
      "outputPathIsSetByUser" : 0,
      "inputAbbreviatedPath" : "\/scss\/bootstrap\/_thumbnails.scss",
      "outputStyle" : 0,
      "shouldRunBless" : 0,
      "outputAbbreviatedPath" : "\/scss\/css\/_thumbnails.css",
      "fileType" : 4,
      "debugStyle" : 0
    },
    "\/scss\/bootstrap\/_component-animations.scss" : {
      "ignoreWasSetByUser" : 0,
      "ignore" : 1,
      "hidden" : 0,
      "outputPathIsSetByUser" : 0,
      "inputAbbreviatedPath" : "\/scss\/bootstrap\/_component-animations.scss",
      "outputStyle" : 0,
      "shouldRunBless" : 0,
      "outputAbbreviatedPath" : "\/scss\/css\/_component-animations.css",
      "fileType" : 4,
      "debugStyle" : 0
    },
    "\/js\/vendor\/modernizr.custombuild.2.6.2.min.js" : {
      "ignoreWasSetByUser" : 1,
      "ignore" : 1,
      "hidden" : 0,
      "outputPathIsSetByUser" : 0,
      "inputAbbreviatedPath" : "\/js\/vendor\/modernizr.custombuild.2.6.2.min.js",
      "outputStyle" : 1,
      "syntaxCheckerStyle" : 1,
      "outputAbbreviatedPath" : "\/js\/vendor\/modernizr.custombuild.2.6.2.min-ck.js",
      "fileType" : 64
    },
    "\/img\/boy3.png" : {
      "ignoreWasSetByUser" : 0,
      "ignore" : 0,
      "hidden" : 0,
      "outputPathIsSetByUser" : 0,
      "inputAbbreviatedPath" : "\/img\/boy3.png",
      "processed" : 0,
      "outputAbbreviatedPath" : "\/img\/boy3.png",
      "initialSize" : 39292,
      "fileType" : 8192
    },
    "\/img\/play_video.png" : {
      "ignoreWasSetByUser" : 0,
      "ignore" : 0,
      "hidden" : 0,
      "outputPathIsSetByUser" : 0,
      "inputAbbreviatedPath" : "\/img\/play_video.png",
      "processed" : 0,
      "outputAbbreviatedPath" : "\/img\/play_video.png",
      "initialSize" : 3339,
      "fileType" : 8192
    },
    "\/js\/plugins\/navigation.js" : {
      "ignoreWasSetByUser" : 0,
      "ignore" : 0,
      "hidden" : 0,
      "outputPathIsSetByUser" : 0,
      "inputAbbreviatedPath" : "\/js\/plugins\/navigation.js",
      "outputStyle" : 1,
      "syntaxCheckerStyle" : 1,
      "outputAbbreviatedPath" : "\/js\/plugins\/navigation-ck.js",
      "fileType" : 64
    },
    "\/js\/plugins\/bootstrap\/bootstrap.js" : {
      "ignoreWasSetByUser" : 0,
      "ignore" : 0,
      "hidden" : 0,
      "outputPathIsSetByUser" : 0,
      "inputAbbreviatedPath" : "\/js\/plugins\/bootstrap\/bootstrap.js",
      "outputStyle" : 1,
      "syntaxCheckerStyle" : 1,
      "outputAbbreviatedPath" : "\/js\/plugins\/bootstrap\/bootstrap-ck.js",
      "fileType" : 64
    },
    "\/img\/mapmarker.png" : {
      "ignoreWasSetByUser" : 0,
      "ignore" : 0,
      "hidden" : 0,
      "outputPathIsSetByUser" : 0,
      "inputAbbreviatedPath" : "\/img\/mapmarker.png",
      "processed" : 0,
      "outputAbbreviatedPath" : "\/img\/mapmarker.png",
      "initialSize" : 5953,
      "fileType" : 8192
    },
    "\/scss\/bootstrap\/_responsive-utilities.scss" : {
      "ignoreWasSetByUser" : 0,
      "ignore" : 1,
      "hidden" : 0,
      "outputPathIsSetByUser" : 0,
      "inputAbbreviatedPath" : "\/scss\/bootstrap\/_responsive-utilities.scss",
      "outputStyle" : 0,
      "shouldRunBless" : 0,
      "outputAbbreviatedPath" : "\/scss\/css\/_responsive-utilities.css",
      "fileType" : 4,
      "debugStyle" : 0
    },
    "\/js\/plugins\/bootstrap\/bootstrap-collapse.js" : {
      "ignoreWasSetByUser" : 0,
      "ignore" : 0,
      "hidden" : 0,
      "outputPathIsSetByUser" : 0,
      "inputAbbreviatedPath" : "\/js\/plugins\/bootstrap\/bootstrap-collapse.js",
      "outputStyle" : 1,
      "syntaxCheckerStyle" : 1,
      "outputAbbreviatedPath" : "\/js\/plugins\/bootstrap\/bootstrap-collapse-ck.js",
      "fileType" : 64
    },
    "\/no-results.php" : {
      "ignoreWasSetByUser" : 0,
      "ignore" : 0,
      "hidden" : 0,
      "outputPathIsSetByUser" : 0,
      "inputAbbreviatedPath" : "\/no-results.php",
      "outputAbbreviatedPath" : "No Output Path",
      "fileType" : 2048
    },
    "\/scss\/bootstrap\/_pagination.scss" : {
      "ignoreWasSetByUser" : 0,
      "ignore" : 1,
      "hidden" : 0,
      "outputPathIsSetByUser" : 0,
      "inputAbbreviatedPath" : "\/scss\/bootstrap\/_pagination.scss",
      "outputStyle" : 0,
      "shouldRunBless" : 0,
      "outputAbbreviatedPath" : "\/scss\/css\/_pagination.css",
      "fileType" : 4,
      "debugStyle" : 0
    },
    "\/scss\/bootstrap\/_utilities.scss" : {
      "ignoreWasSetByUser" : 0,
      "ignore" : 1,
      "hidden" : 0,
      "outputPathIsSetByUser" : 0,
      "inputAbbreviatedPath" : "\/scss\/bootstrap\/_utilities.scss",
      "outputStyle" : 0,
      "shouldRunBless" : 0,
      "outputAbbreviatedPath" : "\/scss\/css\/_utilities.css",
      "fileType" : 4,
      "debugStyle" : 0
    },
    "\/scss\/bootstrap\/_navbar.scss" : {
      "ignoreWasSetByUser" : 0,
      "ignore" : 0,
      "hidden" : 0,
      "outputPathIsSetByUser" : 0,
      "inputAbbreviatedPath" : "\/scss\/bootstrap\/_navbar.scss",
      "outputStyle" : 0,
      "shouldRunBless" : 0,
      "outputAbbreviatedPath" : "\/scss\/css\/_navbar.css",
      "fileType" : 4,
      "debugStyle" : 0
    },
    "\/img\/circle-show-less.png" : {
      "ignoreWasSetByUser" : 0,
      "ignore" : 0,
      "hidden" : 0,
      "outputPathIsSetByUser" : 0,
      "inputAbbreviatedPath" : "\/img\/circle-show-less.png",
      "processed" : 0,
      "outputAbbreviatedPath" : "\/img\/circle-show-less.png",
      "initialSize" : 24165,
      "fileType" : 8192
    },
    "\/functions.php" : {
      "ignoreWasSetByUser" : 0,
      "ignore" : 0,
      "hidden" : 0,
      "outputPathIsSetByUser" : 0,
      "inputAbbreviatedPath" : "\/functions.php",
      "outputAbbreviatedPath" : "No Output Path",
      "fileType" : 2048
    },
    "\/js\/scripts.js" : {
      "ignoreWasSetByUser" : 0,
      "ignore" : 0,
      "hidden" : 0,
      "outputPathIsSetByUser" : 0,
      "inputAbbreviatedPath" : "\/js\/scripts.js",
      "outputStyle" : 1,
      "syntaxCheckerStyle" : 0,
      "outputAbbreviatedPath" : "\/js\/scripts-ck.js",
      "fileType" : 64
    },
    "\/404.php" : {
      "ignoreWasSetByUser" : 0,
      "ignore" : 0,
      "hidden" : 0,
      "outputPathIsSetByUser" : 0,
      "inputAbbreviatedPath" : "\/404.php",
      "outputAbbreviatedPath" : "No Output Path",
      "fileType" : 2048
    },
    "\/js\/plugins.js" : {
      "ignoreWasSetByUser" : 0,
      "ignore" : 0,
      "hidden" : 0,
      "outputPathIsSetByUser" : 0,
      "inputAbbreviatedPath" : "\/js\/plugins.js",
      "outputStyle" : 1,
      "syntaxCheckerStyle" : 0,
      "outputAbbreviatedPath" : "\/js\/plugins-ck.js",
      "fileType" : 64
    },
    "\/img\/boy5.png" : {
      "ignoreWasSetByUser" : 0,
      "ignore" : 0,
      "hidden" : 0,
      "outputPathIsSetByUser" : 0,
      "inputAbbreviatedPath" : "\/img\/boy5.png",
      "processed" : 0,
      "outputAbbreviatedPath" : "\/img\/boy5.png",
      "initialSize" : 37537,
      "fileType" : 8192
    },
    "\/js\/plugins\/bootstrap\/bootstrap-ck.js" : {
      "ignoreWasSetByUser" : 0,
      "ignore" : 1,
      "hidden" : 0,
      "outputPathIsSetByUser" : 0,
      "inputAbbreviatedPath" : "\/js\/plugins\/bootstrap\/bootstrap-ck.js",
      "outputStyle" : 1,
      "syntaxCheckerStyle" : 1,
      "outputAbbreviatedPath" : "\/js\/plugins\/bootstrap\/bootstrap-ck-ck.js",
      "fileType" : 64
    },
    "\/footer.php" : {
      "ignoreWasSetByUser" : 0,
      "ignore" : 0,
      "hidden" : 0,
      "outputPathIsSetByUser" : 0,
      "inputAbbreviatedPath" : "\/footer.php",
      "outputAbbreviatedPath" : "No Output Path",
      "fileType" : 2048
    },
    "\/scss\/_plugin_relatedposts.scss" : {
      "ignoreWasSetByUser" : 0,
      "ignore" : 1,
      "hidden" : 0,
      "outputPathIsSetByUser" : 0,
      "inputAbbreviatedPath" : "\/scss\/_plugin_relatedposts.scss",
      "outputStyle" : 0,
      "shouldRunBless" : 0,
      "outputAbbreviatedPath" : "\/css\/_plugin_relatedposts.css",
      "fileType" : 4,
      "debugStyle" : 0
    },
    "\/scss\/bootstrap\/_code.scss" : {
      "ignoreWasSetByUser" : 0,
      "ignore" : 0,
      "hidden" : 0,
      "outputPathIsSetByUser" : 0,
      "inputAbbreviatedPath" : "\/scss\/bootstrap\/_code.scss",
      "outputStyle" : 0,
      "shouldRunBless" : 0,
      "outputAbbreviatedPath" : "\/scss\/css\/_code.css",
      "fileType" : 4,
      "debugStyle" : 0
    },
    "\/js\/plugins-ck.js" : {
      "ignoreWasSetByUser" : 0,
      "ignore" : 1,
      "hidden" : 0,
      "outputPathIsSetByUser" : 0,
      "inputAbbreviatedPath" : "\/js\/plugins-ck.js",
      "outputStyle" : 1,
      "syntaxCheckerStyle" : 1,
      "outputAbbreviatedPath" : "\/js\/plugins-ck-ck.js",
      "fileType" : 64
    },
    "\/css\/wp-admin.css" : {
      "ignoreWasSetByUser" : 0,
      "ignore" : 1,
      "hidden" : 0,
      "outputPathIsSetByUser" : 0,
      "inputAbbreviatedPath" : "\/css\/wp-admin.css",
      "outputAbbreviatedPath" : "\/No Output Path",
      "fileType" : 16
    },
    "\/scss\/bootstrap\/_layouts.scss" : {
      "ignoreWasSetByUser" : 0,
      "ignore" : 1,
      "hidden" : 0,
      "outputPathIsSetByUser" : 0,
      "inputAbbreviatedPath" : "\/scss\/bootstrap\/_layouts.scss",
      "outputStyle" : 0,
      "shouldRunBless" : 0,
      "outputAbbreviatedPath" : "\/scss\/css\/_layouts.css",
      "fileType" : 4,
      "debugStyle" : 0
    },
    "\/scss\/_plugin_contactform7.scss" : {
      "ignoreWasSetByUser" : 0,
      "ignore" : 1,
      "hidden" : 0,
      "outputPathIsSetByUser" : 0,
      "inputAbbreviatedPath" : "\/scss\/_plugin_contactform7.scss",
      "outputStyle" : 0,
      "shouldRunBless" : 0,
      "outputAbbreviatedPath" : "\/css\/_plugin_contactform7.css",
      "fileType" : 4,
      "debugStyle" : 0
    },
    "\/layouts\/sidebar-content.css" : {
      "ignoreWasSetByUser" : 0,
      "ignore" : 0,
      "hidden" : 0,
      "outputPathIsSetByUser" : 0,
      "inputAbbreviatedPath" : "\/layouts\/sidebar-content.css",
      "outputAbbreviatedPath" : "No Output Path",
      "fileType" : 16
    },
    "\/scss\/bootstrap\/_breadcrumbs.scss" : {
      "ignoreWasSetByUser" : 0,
      "ignore" : 1,
      "hidden" : 0,
      "outputPathIsSetByUser" : 0,
      "inputAbbreviatedPath" : "\/scss\/bootstrap\/_breadcrumbs.scss",
      "outputStyle" : 0,
      "shouldRunBless" : 0,
      "outputAbbreviatedPath" : "\/scss\/css\/_breadcrumbs.css",
      "fileType" : 4,
      "debugStyle" : 0
    },
    "\/inc\/template-tags.php" : {
      "ignoreWasSetByUser" : 0,
      "ignore" : 0,
      "hidden" : 0,
      "outputPathIsSetByUser" : 0,
      "inputAbbreviatedPath" : "\/inc\/template-tags.php",
      "outputAbbreviatedPath" : "No Output Path",
      "fileType" : 2048
    },
    "\/scss\/_plugin_wppolls.scss" : {
      "ignoreWasSetByUser" : 0,
      "ignore" : 1,
      "hidden" : 0,
      "outputPathIsSetByUser" : 0,
      "inputAbbreviatedPath" : "\/scss\/_plugin_wppolls.scss",
      "outputStyle" : 0,
      "shouldRunBless" : 0,
      "outputAbbreviatedPath" : "\/css\/_plugin_wppolls.css",
      "fileType" : 4,
      "debugStyle" : 0
    },
    "\/js\/plugins\/bootstrap\/bootstrap-scrollspy-ck.js" : {
      "ignoreWasSetByUser" : 0,
      "ignore" : 1,
      "hidden" : 0,
      "outputPathIsSetByUser" : 0,
      "inputAbbreviatedPath" : "\/js\/plugins\/bootstrap\/bootstrap-scrollspy-ck.js",
      "outputStyle" : 1,
      "syntaxCheckerStyle" : 1,
      "outputAbbreviatedPath" : "\/js\/plugins\/bootstrap\/bootstrap-scrollspy-ck-ck.js",
      "fileType" : 64
    },
    "\/img\/mapmarker-54px.png" : {
      "ignoreWasSetByUser" : 0,
      "ignore" : 0,
      "hidden" : 0,
      "outputPathIsSetByUser" : 0,
      "inputAbbreviatedPath" : "\/img\/mapmarker-54px.png",
      "processed" : 0,
      "outputAbbreviatedPath" : "\/img\/mapmarker-54px.png",
      "initialSize" : 1924,
      "fileType" : 8192
    },
    "\/js\/plugins\/jSlabify-master\/js\/jquery.jSlabify.min.js" : {
      "ignoreWasSetByUser" : 0,
      "ignore" : 0,
      "hidden" : 0,
      "outputPathIsSetByUser" : 0,
      "inputAbbreviatedPath" : "\/js\/plugins\/jSlabify-master\/js\/jquery.jSlabify.min.js",
      "outputStyle" : 1,
      "syntaxCheckerStyle" : 1,
      "outputAbbreviatedPath" : "\/js\/plugins\/jSlabify-master\/js\/jquery.jSlabify.min-ck.js",
      "fileType" : 64
    },
    "\/content-teaser-standard.php" : {
      "ignoreWasSetByUser" : 0,
      "ignore" : 0,
      "hidden" : 0,
      "outputPathIsSetByUser" : 0,
      "inputAbbreviatedPath" : "\/content-teaser-standard.php",
      "outputAbbreviatedPath" : "No Output Path",
      "fileType" : 2048
    },
    "\/js\/plugins\/skip-link-focus-fix-ck.js" : {
      "ignoreWasSetByUser" : 0,
      "ignore" : 1,
      "hidden" : 0,
      "outputPathIsSetByUser" : 0,
      "inputAbbreviatedPath" : "\/js\/plugins\/skip-link-focus-fix-ck.js",
      "outputStyle" : 1,
      "syntaxCheckerStyle" : 1,
      "outputAbbreviatedPath" : "\/js\/plugins\/skip-link-focus-fix-ck-ck.js",
      "fileType" : 64
    },
    "\/js\/vendor\/modernizr.full.2.6.2-ck.js" : {
      "ignoreWasSetByUser" : 0,
      "ignore" : 1,
      "hidden" : 0,
      "outputPathIsSetByUser" : 0,
      "inputAbbreviatedPath" : "\/js\/vendor\/modernizr.full.2.6.2-ck.js",
      "outputStyle" : 1,
      "syntaxCheckerStyle" : 1,
      "outputAbbreviatedPath" : "\/js\/vendor\/modernizr.full.2.6.2-ck-ck.js",
      "fileType" : 64
    },
    "\/content-page.php" : {
      "ignoreWasSetByUser" : 0,
      "ignore" : 0,
      "hidden" : 0,
      "outputPathIsSetByUser" : 0,
      "inputAbbreviatedPath" : "\/content-page.php",
      "outputAbbreviatedPath" : "No Output Path",
      "fileType" : 2048
    },
    "\/img\/btn-facebook.png" : {
      "ignoreWasSetByUser" : 0,
      "ignore" : 0,
      "hidden" : 0,
      "outputPathIsSetByUser" : 0,
      "inputAbbreviatedPath" : "\/img\/btn-facebook.png",
      "processed" : 0,
      "outputAbbreviatedPath" : "\/img\/btn-facebook.png",
      "initialSize" : 1968,
      "fileType" : 8192
    },
    "\/img\/banner_voting.png" : {
      "ignoreWasSetByUser" : 0,
      "ignore" : 0,
      "hidden" : 0,
      "outputPathIsSetByUser" : 0,
      "inputAbbreviatedPath" : "\/img\/banner_voting.png",
      "processed" : 0,
      "outputAbbreviatedPath" : "\/img\/banner_voting.png",
      "initialSize" : 22986,
      "fileType" : 8192
    },
    "\/js\/plugins\/jSlabify-master\/css\/jSlabify.css" : {
      "ignoreWasSetByUser" : 0,
      "ignore" : 0,
      "hidden" : 0,
      "outputPathIsSetByUser" : 0,
      "inputAbbreviatedPath" : "\/js\/plugins\/jSlabify-master\/css\/jSlabify.css",
      "outputAbbreviatedPath" : "No Output Path",
      "fileType" : 16
    },
    "\/content-single.php" : {
      "ignoreWasSetByUser" : 0,
      "ignore" : 0,
      "hidden" : 0,
      "outputPathIsSetByUser" : 0,
      "inputAbbreviatedPath" : "\/content-single.php",
      "outputAbbreviatedPath" : "No Output Path",
      "fileType" : 2048
    },
    "\/js\/plugins\/bootstrap\/bootstrap-affix-ck.js" : {
      "ignoreWasSetByUser" : 0,
      "ignore" : 1,
      "hidden" : 0,
      "outputPathIsSetByUser" : 0,
      "inputAbbreviatedPath" : "\/js\/plugins\/bootstrap\/bootstrap-affix-ck.js",
      "outputStyle" : 1,
      "syntaxCheckerStyle" : 1,
      "outputAbbreviatedPath" : "\/js\/plugins\/bootstrap\/bootstrap-affix-ck-ck.js",
      "fileType" : 64
    },
    "\/search.php" : {
      "ignoreWasSetByUser" : 0,
      "ignore" : 0,
      "hidden" : 0,
      "outputPathIsSetByUser" : 0,
      "inputAbbreviatedPath" : "\/search.php",
      "outputAbbreviatedPath" : "No Output Path",
      "fileType" : 2048
    },
    "\/js\/plugins\/bootstrap\/bootstrap-scrollspy.js" : {
      "ignoreWasSetByUser" : 0,
      "ignore" : 0,
      "hidden" : 0,
      "outputPathIsSetByUser" : 0,
      "inputAbbreviatedPath" : "\/js\/plugins\/bootstrap\/bootstrap-scrollspy.js",
      "outputStyle" : 1,
      "syntaxCheckerStyle" : 1,
      "outputAbbreviatedPath" : "\/js\/plugins\/bootstrap\/bootstrap-scrollspy-ck.js",
      "fileType" : 64
    },
    "\/img\/banner-gelaendetest.jpg" : {
      "ignoreWasSetByUser" : 0,
      "ignore" : 0,
      "hidden" : 0,
      "outputPathIsSetByUser" : 0,
      "inputAbbreviatedPath" : "\/img\/banner-gelaendetest.jpg",
      "processed" : 0,
      "outputAbbreviatedPath" : "\/img\/banner-gelaendetest.jpg",
      "initialSize" : 14856,
      "fileType" : 4096
    },
    "\/header-stage-home.php" : {
      "ignoreWasSetByUser" : 0,
      "ignore" : 0,
      "hidden" : 0,
      "outputPathIsSetByUser" : 0,
      "inputAbbreviatedPath" : "\/header-stage-home.php",
      "outputAbbreviatedPath" : "No Output Path",
      "fileType" : 2048
    },
    "\/layouts\/sidebar-sidebar-content.css" : {
      "ignoreWasSetByUser" : 0,
      "ignore" : 0,
      "hidden" : 0,
      "outputPathIsSetByUser" : 0,
      "inputAbbreviatedPath" : "\/layouts\/sidebar-sidebar-content.css",
      "outputAbbreviatedPath" : "No Output Path",
      "fileType" : 16
    },
    "\/js\/plugins\/keyboard-image-navigation-ck.js" : {
      "ignoreWasSetByUser" : 0,
      "ignore" : 1,
      "hidden" : 0,
      "outputPathIsSetByUser" : 0,
      "inputAbbreviatedPath" : "\/js\/plugins\/keyboard-image-navigation-ck.js",
      "outputStyle" : 1,
      "syntaxCheckerStyle" : 1,
      "outputAbbreviatedPath" : "\/js\/plugins\/keyboard-image-navigation-ck-ck.js",
      "fileType" : 64
    },
    "\/archive.php" : {
      "ignoreWasSetByUser" : 0,
      "ignore" : 0,
      "hidden" : 0,
      "outputPathIsSetByUser" : 0,
      "inputAbbreviatedPath" : "\/archive.php",
      "outputAbbreviatedPath" : "No Output Path",
      "fileType" : 2048
    },
    "\/js\/plugins\/bootstrap\/bootstrap-affix.js" : {
      "ignoreWasSetByUser" : 0,
      "ignore" : 0,
      "hidden" : 0,
      "outputPathIsSetByUser" : 0,
      "inputAbbreviatedPath" : "\/js\/plugins\/bootstrap\/bootstrap-affix.js",
      "outputStyle" : 1,
      "syntaxCheckerStyle" : 1,
      "outputAbbreviatedPath" : "\/js\/plugins\/bootstrap\/bootstrap-affix-ck.js",
      "fileType" : 64
    },
    "\/img\/btn-twitter.png" : {
      "ignoreWasSetByUser" : 0,
      "ignore" : 0,
      "hidden" : 0,
      "outputPathIsSetByUser" : 0,
      "inputAbbreviatedPath" : "\/img\/btn-twitter.png",
      "processed" : 0,
      "outputAbbreviatedPath" : "\/img\/btn-twitter.png",
      "initialSize" : 2337,
      "fileType" : 8192
    },
    "\/js\/vendor\/modernizr.full.2.6.2.js" : {
      "ignoreWasSetByUser" : 0,
      "ignore" : 0,
      "hidden" : 0,
      "outputPathIsSetByUser" : 0,
      "inputAbbreviatedPath" : "\/js\/vendor\/modernizr.full.2.6.2.js",
      "outputStyle" : 1,
      "syntaxCheckerStyle" : 1,
      "outputAbbreviatedPath" : "\/js\/vendor\/modernizr.full.2.6.2-ck.js",
      "fileType" : 64
    },
    "\/css\/basic.css" : {
      "ignoreWasSetByUser" : 0,
      "ignore" : 1,
      "hidden" : 0,
      "outputPathIsSetByUser" : 0,
      "inputAbbreviatedPath" : "\/css\/basic.css",
      "outputAbbreviatedPath" : "\/No Output Path",
      "fileType" : 16
    },
    "\/header-stage-author.php" : {
      "ignoreWasSetByUser" : 0,
      "ignore" : 0,
      "hidden" : 0,
      "outputPathIsSetByUser" : 0,
      "inputAbbreviatedPath" : "\/header-stage-author.php",
      "outputAbbreviatedPath" : "No Output Path",
      "fileType" : 2048
    },
    "\/img\/stripes-green-alt.png" : {
      "ignoreWasSetByUser" : 0,
      "ignore" : 0,
      "hidden" : 0,
      "outputPathIsSetByUser" : 0,
      "inputAbbreviatedPath" : "\/img\/stripes-green-alt.png",
      "processed" : 0,
      "outputAbbreviatedPath" : "\/img\/stripes-green-alt.png",
      "initialSize" : 2712,
      "fileType" : 8192
    },
    "\/js\/plugins\/navigation-ck.js" : {
      "ignoreWasSetByUser" : 0,
      "ignore" : 1,
      "hidden" : 0,
      "outputPathIsSetByUser" : 0,
      "inputAbbreviatedPath" : "\/js\/plugins\/navigation-ck.js",
      "outputStyle" : 1,
      "syntaxCheckerStyle" : 1,
      "outputAbbreviatedPath" : "\/js\/plugins\/navigation-ck-ck.js",
      "fileType" : 64
    },
    "\/screenshot.png" : {
      "ignoreWasSetByUser" : 0,
      "ignore" : 0,
      "hidden" : 0,
      "outputPathIsSetByUser" : 0,
      "inputAbbreviatedPath" : "\/screenshot.png",
      "processed" : 0,
      "outputAbbreviatedPath" : "\/screenshot.png",
      "initialSize" : 1406,
      "fileType" : 8192
    },
    "\/js\/plugins\/bootstrap\/bootstrap-button-ck.js" : {
      "ignoreWasSetByUser" : 0,
      "ignore" : 1,
      "hidden" : 0,
      "outputPathIsSetByUser" : 0,
      "inputAbbreviatedPath" : "\/js\/plugins\/bootstrap\/bootstrap-button-ck.js",
      "outputStyle" : 1,
      "syntaxCheckerStyle" : 1,
      "outputAbbreviatedPath" : "\/js\/plugins\/bootstrap\/bootstrap-button-ck-ck.js",
      "fileType" : 64
    },
    "\/inc\/jetpack.php" : {
      "ignoreWasSetByUser" : 0,
      "ignore" : 0,
      "hidden" : 0,
      "outputPathIsSetByUser" : 0,
      "inputAbbreviatedPath" : "\/inc\/jetpack.php",
      "outputAbbreviatedPath" : "No Output Path",
      "fileType" : 2048
    },
    "\/js\/plugins\/jSlabify-master\/js\/jquery.jSlabify.min-ck.js" : {
      "ignoreWasSetByUser" : 0,
      "ignore" : 1,
      "hidden" : 0,
      "outputPathIsSetByUser" : 0,
      "inputAbbreviatedPath" : "\/js\/plugins\/jSlabify-master\/js\/jquery.jSlabify.min-ck.js",
      "outputStyle" : 1,
      "syntaxCheckerStyle" : 1,
      "outputAbbreviatedPath" : "\/js\/plugins\/jSlabify-master\/js\/jquery.jSlabify.min-ck-ck.js",
      "fileType" : 64
    },
    "\/js\/plugins\/bootstrap\/bootstrap-alert.js" : {
      "ignoreWasSetByUser" : 0,
      "ignore" : 0,
      "hidden" : 0,
      "outputPathIsSetByUser" : 0,
      "inputAbbreviatedPath" : "\/js\/plugins\/bootstrap\/bootstrap-alert.js",
      "outputStyle" : 1,
      "syntaxCheckerStyle" : 1,
      "outputAbbreviatedPath" : "\/js\/plugins\/bootstrap\/bootstrap-alert-ck.js",
      "fileType" : 64
    },
    "\/js\/plugins\/bootstrap\/bootstrap-dropdown.js" : {
      "ignoreWasSetByUser" : 0,
      "ignore" : 0,
      "hidden" : 0,
      "outputPathIsSetByUser" : 0,
      "inputAbbreviatedPath" : "\/js\/plugins\/bootstrap\/bootstrap-dropdown.js",
      "outputStyle" : 1,
      "syntaxCheckerStyle" : 1,
      "outputAbbreviatedPath" : "\/js\/plugins\/bootstrap\/bootstrap-dropdown-ck.js",
      "fileType" : 64
    },
    "\/scss\/bootstrap\/_alerts.scss" : {
      "ignoreWasSetByUser" : 0,
      "ignore" : 1,
      "hidden" : 0,
      "outputPathIsSetByUser" : 0,
      "inputAbbreviatedPath" : "\/scss\/bootstrap\/_alerts.scss",
      "outputStyle" : 0,
      "shouldRunBless" : 0,
      "outputAbbreviatedPath" : "\/scss\/css\/_alerts.css",
      "fileType" : 4,
      "debugStyle" : 0
    },
    "\/scss\/bootstrap\/_responsive-1200px-min.scss" : {
      "ignoreWasSetByUser" : 0,
      "ignore" : 1,
      "hidden" : 0,
      "outputPathIsSetByUser" : 0,
      "inputAbbreviatedPath" : "\/scss\/bootstrap\/_responsive-1200px-min.scss",
      "outputStyle" : 0,
      "shouldRunBless" : 0,
      "outputAbbreviatedPath" : "\/scss\/css\/_responsive-1200px-min.css",
      "fileType" : 4,
      "debugStyle" : 0
    },
    "\/js\/plugins\/bootstrap\/bootstrap-tab.js" : {
      "ignoreWasSetByUser" : 0,
      "ignore" : 0,
      "hidden" : 0,
      "outputPathIsSetByUser" : 0,
      "inputAbbreviatedPath" : "\/js\/plugins\/bootstrap\/bootstrap-tab.js",
      "outputStyle" : 1,
      "syntaxCheckerStyle" : 1,
      "outputAbbreviatedPath" : "\/js\/plugins\/bootstrap\/bootstrap-tab-ck.js",
      "fileType" : 64
    },
    "\/scss\/bootstrap\/_type.scss" : {
      "ignoreWasSetByUser" : 0,
      "ignore" : 1,
      "hidden" : 0,
      "outputPathIsSetByUser" : 0,
      "inputAbbreviatedPath" : "\/scss\/bootstrap\/_type.scss",
      "outputStyle" : 0,
      "shouldRunBless" : 0,
      "outputAbbreviatedPath" : "\/scss\/css\/_type.css",
      "fileType" : 4,
      "debugStyle" : 0
    },
    "\/js\/plugins\/jquery.jSlabify.min.js" : {
      "ignoreWasSetByUser" : 0,
      "ignore" : 0,
      "hidden" : 0,
      "outputPathIsSetByUser" : 0,
      "inputAbbreviatedPath" : "\/js\/plugins\/jquery.jSlabify.min.js",
      "outputStyle" : 1,
      "syntaxCheckerStyle" : 1,
      "outputAbbreviatedPath" : "\/js\/plugins\/jquery.jSlabify.min-ck.js",
      "fileType" : 64
    },
    "\/layouts\/sidebar-content-sidebar.css" : {
      "ignoreWasSetByUser" : 0,
      "ignore" : 0,
      "hidden" : 0,
      "outputPathIsSetByUser" : 0,
      "inputAbbreviatedPath" : "\/layouts\/sidebar-content-sidebar.css",
      "outputAbbreviatedPath" : "No Output Path",
      "fileType" : 16
    },
    "\/scss\/bootstrap\/_accordion.scss" : {
      "ignoreWasSetByUser" : 0,
      "ignore" : 1,
      "hidden" : 0,
      "outputPathIsSetByUser" : 0,
      "inputAbbreviatedPath" : "\/scss\/bootstrap\/_accordion.scss",
      "outputStyle" : 0,
      "shouldRunBless" : 0,
      "outputAbbreviatedPath" : "\/scss\/css\/_accordion.css",
      "fileType" : 4,
      "debugStyle" : 0
    },
    "\/fonts\/webfonts.scss" : {
      "ignoreWasSetByUser" : 0,
      "ignore" : 0,
      "hidden" : 0,
      "outputPathIsSetByUser" : 1,
      "inputAbbreviatedPath" : "\/fonts\/webfonts.scss",
      "outputStyle" : 0,
      "shouldRunBless" : 0,
      "outputAbbreviatedPath" : "\/fonts\/webfonts.css",
      "fileType" : 4,
      "debugStyle" : 0
    },
    "\/fonts\/webfonts.css" : {
      "ignoreWasSetByUser" : 0,
      "ignore" : 1,
      "hidden" : 0,
      "outputPathIsSetByUser" : 0,
      "inputAbbreviatedPath" : "\/fonts\/webfonts.css",
      "outputAbbreviatedPath" : "\/No Output Path",
      "fileType" : 16
    },
    "\/img\/video-placeholder.jpg" : {
      "ignoreWasSetByUser" : 0,
      "ignore" : 0,
      "hidden" : 0,
      "outputPathIsSetByUser" : 0,
      "inputAbbreviatedPath" : "\/img\/video-placeholder.jpg",
      "processed" : 0,
      "outputAbbreviatedPath" : "\/img\/video-placeholder.jpg",
      "initialSize" : 1074,
      "fileType" : 4096
    },
    "\/scss\/bootstrap\/_tables.scss" : {
      "ignoreWasSetByUser" : 0,
      "ignore" : 0,
      "hidden" : 0,
      "outputPathIsSetByUser" : 0,
      "inputAbbreviatedPath" : "\/scss\/bootstrap\/_tables.scss",
      "outputStyle" : 0,
      "shouldRunBless" : 0,
      "outputAbbreviatedPath" : "\/scss\/css\/_tables.css",
      "fileType" : 4,
      "debugStyle" : 0
    },
    "\/img\/mapmarker-80px.png" : {
      "ignoreWasSetByUser" : 0,
      "ignore" : 0,
      "hidden" : 0,
      "outputPathIsSetByUser" : 0,
      "inputAbbreviatedPath" : "\/img\/mapmarker-80px.png",
      "processed" : 0,
      "outputAbbreviatedPath" : "\/img\/mapmarker-80px.png",
      "initialSize" : 2166,
      "fileType" : 8192
    },
    "\/img\/btn-youtube.png" : {
      "ignoreWasSetByUser" : 0,
      "ignore" : 0,
      "hidden" : 0,
      "outputPathIsSetByUser" : 0,
      "inputAbbreviatedPath" : "\/img\/btn-youtube.png",
      "processed" : 0,
      "outputAbbreviatedPath" : "\/img\/btn-youtube.png",
      "initialSize" : 2738,
      "fileType" : 8192
    },
    "\/scss\/bootstrap\/_mixins.scss" : {
      "ignoreWasSetByUser" : 0,
      "ignore" : 1,
      "hidden" : 0,
      "outputPathIsSetByUser" : 0,
      "inputAbbreviatedPath" : "\/scss\/bootstrap\/_mixins.scss",
      "outputStyle" : 0,
      "shouldRunBless" : 0,
      "outputAbbreviatedPath" : "\/scss\/css\/_mixins.css",
      "fileType" : 4,
      "debugStyle" : 0
    },
    "\/img\/notepad.png" : {
      "ignoreWasSetByUser" : 0,
      "ignore" : 0,
      "hidden" : 0,
      "outputPathIsSetByUser" : 0,
      "inputAbbreviatedPath" : "\/img\/notepad.png",
      "processed" : 0,
      "outputAbbreviatedPath" : "\/img\/notepad.png",
      "initialSize" : 34247,
      "fileType" : 8192
    },
    "\/header.php" : {
      "ignoreWasSetByUser" : 0,
      "ignore" : 0,
      "hidden" : 0,
      "outputPathIsSetByUser" : 0,
      "inputAbbreviatedPath" : "\/header.php",
      "outputAbbreviatedPath" : "No Output Path",
      "fileType" : 2048
    },
    "\/img\/boy2.png" : {
      "ignoreWasSetByUser" : 0,
      "ignore" : 0,
      "hidden" : 0,
      "outputPathIsSetByUser" : 0,
      "inputAbbreviatedPath" : "\/img\/boy2.png",
      "processed" : 0,
      "outputAbbreviatedPath" : "\/img\/boy2.png",
      "initialSize" : 6375,
      "fileType" : 8192
    },
    "\/scss\/bootstrap\/_forms.scss" : {
      "ignoreWasSetByUser" : 0,
      "ignore" : 1,
      "hidden" : 0,
      "outputPathIsSetByUser" : 0,
      "inputAbbreviatedPath" : "\/scss\/bootstrap\/_forms.scss",
      "outputStyle" : 0,
      "shouldRunBless" : 0,
      "outputAbbreviatedPath" : "\/scss\/css\/_forms.css",
      "fileType" : 4,
      "debugStyle" : 0
    },
    "\/js\/scripts-ck.js" : {
      "ignoreWasSetByUser" : 0,
      "ignore" : 1,
      "hidden" : 0,
      "outputPathIsSetByUser" : 0,
      "inputAbbreviatedPath" : "\/js\/scripts-ck.js",
      "outputStyle" : 1,
      "syntaxCheckerStyle" : 1,
      "outputAbbreviatedPath" : "\/js\/scripts-ck-ck.js",
      "fileType" : 64
    },
    "\/layouts\/content-sidebar-sidebar.css" : {
      "ignoreWasSetByUser" : 0,
      "ignore" : 0,
      "hidden" : 0,
      "outputPathIsSetByUser" : 0,
      "inputAbbreviatedPath" : "\/layouts\/content-sidebar-sidebar.css",
      "outputAbbreviatedPath" : "No Output Path",
      "fileType" : 16
    },
    "\/comments.php" : {
      "ignoreWasSetByUser" : 0,
      "ignore" : 0,
      "hidden" : 0,
      "outputPathIsSetByUser" : 0,
      "inputAbbreviatedPath" : "\/comments.php",
      "outputAbbreviatedPath" : "No Output Path",
      "fileType" : 2048
    },
    "\/js\/plugins\/jSlabify-master\/js\/jquery.jSlabify.js" : {
      "ignoreWasSetByUser" : 0,
      "ignore" : 0,
      "hidden" : 0,
      "outputPathIsSetByUser" : 0,
      "inputAbbreviatedPath" : "\/js\/plugins\/jSlabify-master\/js\/jquery.jSlabify.js",
      "outputStyle" : 1,
      "syntaxCheckerStyle" : 1,
      "outputAbbreviatedPath" : "\/js\/plugins\/jSlabify-master\/js\/jquery.jSlabify-ck.js",
      "fileType" : 64
    },
    "\/scss\/bootstrap\/_popovers.scss" : {
      "ignoreWasSetByUser" : 0,
      "ignore" : 1,
      "hidden" : 0,
      "outputPathIsSetByUser" : 0,
      "inputAbbreviatedPath" : "\/scss\/bootstrap\/_popovers.scss",
      "outputStyle" : 0,
      "shouldRunBless" : 0,
      "outputAbbreviatedPath" : "\/scss\/css\/_popovers.css",
      "fileType" : 4,
      "debugStyle" : 0
    },
    "\/page-documentation.php" : {
      "ignoreWasSetByUser" : 0,
      "ignore" : 0,
      "hidden" : 0,
      "outputPathIsSetByUser" : 0,
      "inputAbbreviatedPath" : "\/page-documentation.php",
      "outputAbbreviatedPath" : "No Output Path",
      "fileType" : 2048
    },
    "\/scss\/bootstrap\/_variables.scss" : {
      "ignoreWasSetByUser" : 0,
      "ignore" : 1,
      "hidden" : 0,
      "outputPathIsSetByUser" : 0,
      "inputAbbreviatedPath" : "\/scss\/bootstrap\/_variables.scss",
      "outputStyle" : 0,
      "shouldRunBless" : 0,
      "outputAbbreviatedPath" : "\/scss\/css\/_variables.css",
      "fileType" : 4,
      "debugStyle" : 0
    },
    "\/scss\/bootstrap\/_dropdowns.scss" : {
      "ignoreWasSetByUser" : 0,
      "ignore" : 1,
      "hidden" : 0,
      "outputPathIsSetByUser" : 0,
      "inputAbbreviatedPath" : "\/scss\/bootstrap\/_dropdowns.scss",
      "outputStyle" : 0,
      "shouldRunBless" : 0,
      "outputAbbreviatedPath" : "\/scss\/css\/_dropdowns.css",
      "fileType" : 4,
      "debugStyle" : 0
    },
    "\/js\/plugins\/jSlabify-master\/js\/jquery.jSlabify-ck.js" : {
      "ignoreWasSetByUser" : 0,
      "ignore" : 1,
      "hidden" : 0,
      "outputPathIsSetByUser" : 0,
      "inputAbbreviatedPath" : "\/js\/plugins\/jSlabify-master\/js\/jquery.jSlabify-ck.js",
      "outputStyle" : 1,
      "syntaxCheckerStyle" : 1,
      "outputAbbreviatedPath" : "\/js\/plugins\/jSlabify-master\/js\/jquery.jSlabify-ck-ck.js",
      "fileType" : 64
    },
    "\/scss\/bootstrap\/_reset.scss" : {
      "ignoreWasSetByUser" : 0,
      "ignore" : 1,
      "hidden" : 0,
      "outputPathIsSetByUser" : 0,
      "inputAbbreviatedPath" : "\/scss\/bootstrap\/_reset.scss",
      "outputStyle" : 0,
      "shouldRunBless" : 0,
      "outputAbbreviatedPath" : "\/scss\/css\/_reset.css",
      "fileType" : 4,
      "debugStyle" : 0
    },
    "\/js\/plugins\/keyboard-image-navigation.js" : {
      "ignoreWasSetByUser" : 0,
      "ignore" : 0,
      "hidden" : 0,
      "outputPathIsSetByUser" : 0,
      "inputAbbreviatedPath" : "\/js\/plugins\/keyboard-image-navigation.js",
      "outputStyle" : 1,
      "syntaxCheckerStyle" : 1,
      "outputAbbreviatedPath" : "\/js\/plugins\/keyboard-image-navigation-ck.js",
      "fileType" : 64
    },
    "\/js\/plugins\/jquery.jSlabify.min-ck.js" : {
      "ignoreWasSetByUser" : 0,
      "ignore" : 1,
      "hidden" : 0,
      "outputPathIsSetByUser" : 0,
      "inputAbbreviatedPath" : "\/js\/plugins\/jquery.jSlabify.min-ck.js",
      "outputStyle" : 1,
      "syntaxCheckerStyle" : 1,
      "outputAbbreviatedPath" : "\/js\/plugins\/jquery.jSlabify.min-ck-ck.js",
      "fileType" : 64
    },
    "\/inc\/extras.php" : {
      "ignoreWasSetByUser" : 0,
      "ignore" : 0,
      "hidden" : 0,
      "outputPathIsSetByUser" : 0,
      "inputAbbreviatedPath" : "\/inc\/extras.php",
      "outputAbbreviatedPath" : "No Output Path",
      "fileType" : 2048
    },
    "\/img\/boy4.png" : {
      "ignoreWasSetByUser" : 0,
      "ignore" : 0,
      "hidden" : 0,
      "outputPathIsSetByUser" : 0,
      "inputAbbreviatedPath" : "\/img\/boy4.png",
      "processed" : 0,
      "outputAbbreviatedPath" : "\/img\/boy4.png",
      "initialSize" : 42272,
      "fileType" : 8192
    },
    "\/header-sociallinks.php" : {
      "ignoreWasSetByUser" : 0,
      "ignore" : 0,
      "hidden" : 0,
      "outputPathIsSetByUser" : 0,
      "inputAbbreviatedPath" : "\/header-sociallinks.php",
      "outputAbbreviatedPath" : "No Output Path",
      "fileType" : 2048
    },
    "\/js\/plugins\/bootstrap\/bootstrap-alert-ck.js" : {
      "ignoreWasSetByUser" : 0,
      "ignore" : 1,
      "hidden" : 0,
      "outputPathIsSetByUser" : 0,
      "inputAbbreviatedPath" : "\/js\/plugins\/bootstrap\/bootstrap-alert-ck.js",
      "outputStyle" : 1,
      "syntaxCheckerStyle" : 1,
      "outputAbbreviatedPath" : "\/js\/plugins\/bootstrap\/bootstrap-alert-ck-ck.js",
      "fileType" : 64
    },
    "\/scss\/bootstrap\/_responsive-768px-979px.scss" : {
      "ignoreWasSetByUser" : 0,
      "ignore" : 1,
      "hidden" : 0,
      "outputPathIsSetByUser" : 0,
      "inputAbbreviatedPath" : "\/scss\/bootstrap\/_responsive-768px-979px.scss",
      "outputStyle" : 0,
      "shouldRunBless" : 0,
      "outputAbbreviatedPath" : "\/scss\/css\/_responsive-768px-979px.css",
      "fileType" : 4,
      "debugStyle" : 0
    },
    "\/scss\/bootstrap\/_media.scss" : {
      "ignoreWasSetByUser" : 0,
      "ignore" : 1,
      "hidden" : 0,
      "outputPathIsSetByUser" : 0,
      "inputAbbreviatedPath" : "\/scss\/bootstrap\/_media.scss",
      "outputStyle" : 0,
      "shouldRunBless" : 0,
      "outputAbbreviatedPath" : "\/scss\/css\/_media.css",
      "fileType" : 4,
      "debugStyle" : 0
    },
    "\/js\/plugins\/bootstrap\/bootstrap-popover-ck.js" : {
      "ignoreWasSetByUser" : 0,
      "ignore" : 1,
      "hidden" : 0,
      "outputPathIsSetByUser" : 0,
      "inputAbbreviatedPath" : "\/js\/plugins\/bootstrap\/bootstrap-popover-ck.js",
      "outputStyle" : 1,
      "syntaxCheckerStyle" : 1,
      "outputAbbreviatedPath" : "\/js\/plugins\/bootstrap\/bootstrap-popover-ck-ck.js",
      "fileType" : 64
    },
    "\/img\/notepad-bottom.png" : {
      "ignoreWasSetByUser" : 0,
      "ignore" : 0,
      "hidden" : 0,
      "outputPathIsSetByUser" : 0,
      "inputAbbreviatedPath" : "\/img\/notepad-bottom.png",
      "processed" : 0,
      "outputAbbreviatedPath" : "\/img\/notepad-bottom.png",
      "initialSize" : 806,
      "fileType" : 8192
    },
    "\/scss\/bootstrap\/_button-groups.scss" : {
      "ignoreWasSetByUser" : 0,
      "ignore" : 1,
      "hidden" : 0,
      "outputPathIsSetByUser" : 0,
      "inputAbbreviatedPath" : "\/scss\/bootstrap\/_button-groups.scss",
      "outputStyle" : 0,
      "shouldRunBless" : 0,
      "outputAbbreviatedPath" : "\/scss\/css\/_button-groups.css",
      "fileType" : 4,
      "debugStyle" : 0
    },
    "\/scss\/bootstrap\/_wells.scss" : {
      "ignoreWasSetByUser" : 0,
      "ignore" : 1,
      "hidden" : 0,
      "outputPathIsSetByUser" : 0,
      "inputAbbreviatedPath" : "\/scss\/bootstrap\/_wells.scss",
      "outputStyle" : 0,
      "shouldRunBless" : 0,
      "outputAbbreviatedPath" : "\/scss\/css\/_wells.css",
      "fileType" : 4,
      "debugStyle" : 0
    },
    "\/img\/deutschlandoverlay.png" : {
      "ignoreWasSetByUser" : 0,
      "ignore" : 0,
      "hidden" : 0,
      "outputPathIsSetByUser" : 0,
      "inputAbbreviatedPath" : "\/img\/deutschlandoverlay.png",
      "processed" : 0,
      "outputAbbreviatedPath" : "\/img\/deutschlandoverlay.png",
      "initialSize" : 24941,
      "fileType" : 8192
    },
    "\/scss\/basic.scss" : {
      "ignoreWasSetByUser" : 1,
      "ignore" : 0,
      "hidden" : 0,
      "outputPathIsSetByUser" : 0,
      "inputAbbreviatedPath" : "\/scss\/basic.scss",
      "outputStyle" : 3,
      "shouldRunBless" : 0,
      "outputAbbreviatedPath" : "\/css\/basic.css",
      "fileType" : 4,
      "debugStyle" : 0
    },
    "\/scss\/bootstrap\/_grid.scss" : {
      "ignoreWasSetByUser" : 0,
      "ignore" : 1,
      "hidden" : 0,
      "outputPathIsSetByUser" : 0,
      "inputAbbreviatedPath" : "\/scss\/bootstrap\/_grid.scss",
      "outputStyle" : 0,
      "shouldRunBless" : 0,
      "outputAbbreviatedPath" : "\/scss\/css\/_grid.css",
      "fileType" : 4,
      "debugStyle" : 0
    },
    "\/img\/stripes-dark.png" : {
      "ignoreWasSetByUser" : 0,
      "ignore" : 0,
      "hidden" : 0,
      "outputPathIsSetByUser" : 0,
      "inputAbbreviatedPath" : "\/img\/stripes-dark.png",
      "processed" : 0,
      "outputAbbreviatedPath" : "\/img\/stripes-dark.png",
      "initialSize" : 954,
      "fileType" : 8192
    },
    "\/page-mediagallery.php" : {
      "ignoreWasSetByUser" : 0,
      "ignore" : 0,
      "hidden" : 0,
      "outputPathIsSetByUser" : 0,
      "inputAbbreviatedPath" : "\/page-mediagallery.php",
      "outputAbbreviatedPath" : "No Output Path",
      "fileType" : 2048
    },
    "\/img\/boy6.png" : {
      "ignoreWasSetByUser" : 0,
      "ignore" : 0,
      "hidden" : 0,
      "outputPathIsSetByUser" : 0,
      "inputAbbreviatedPath" : "\/img\/boy6.png",
      "processed" : 0,
      "outputAbbreviatedPath" : "\/img\/boy6.png",
      "initialSize" : 38213,
      "fileType" : 8192
    },
    "\/img\/boy-mehr.png" : {
      "ignoreWasSetByUser" : 0,
      "ignore" : 0,
      "hidden" : 0,
      "outputPathIsSetByUser" : 0,
      "inputAbbreviatedPath" : "\/img\/boy-mehr.png",
      "processed" : 0,
      "outputAbbreviatedPath" : "\/img\/boy-mehr.png",
      "initialSize" : 15948,
      "fileType" : 8192
    },
    "\/scss\/bootstrap\/_carousel.scss" : {
      "ignoreWasSetByUser" : 0,
      "ignore" : 1,
      "hidden" : 0,
      "outputPathIsSetByUser" : 0,
      "inputAbbreviatedPath" : "\/scss\/bootstrap\/_carousel.scss",
      "outputStyle" : 0,
      "shouldRunBless" : 0,
      "outputAbbreviatedPath" : "\/scss\/css\/_carousel.css",
      "fileType" : 4,
      "debugStyle" : 0
    },
    "\/img\/btn-wiki.png" : {
      "ignoreWasSetByUser" : 0,
      "ignore" : 0,
      "hidden" : 0,
      "outputPathIsSetByUser" : 0,
      "inputAbbreviatedPath" : "\/img\/btn-wiki.png",
      "processed" : 0,
      "outputAbbreviatedPath" : "\/img\/btn-wiki.png",
      "initialSize" : 9603,
      "fileType" : 8192
    },
    "\/scss\/bootstrap\/_navs.scss" : {
      "ignoreWasSetByUser" : 0,
      "ignore" : 1,
      "hidden" : 0,
      "outputPathIsSetByUser" : 0,
      "inputAbbreviatedPath" : "\/scss\/bootstrap\/_navs.scss",
      "outputStyle" : 0,
      "shouldRunBless" : 0,
      "outputAbbreviatedPath" : "\/scss\/css\/_navs.css",
      "fileType" : 4,
      "debugStyle" : 0
    },
    "\/scss\/_font-awesome.sass" : {
      "ignoreWasSetByUser" : 0,
      "ignore" : 1,
      "hidden" : 0,
      "outputPathIsSetByUser" : 0,
      "inputAbbreviatedPath" : "\/scss\/_font-awesome.sass",
      "outputStyle" : 0,
      "shouldRunBless" : 0,
      "outputAbbreviatedPath" : "\/css\/_font-awesome.css",
      "fileType" : 2,
      "debugStyle" : 0
    },
    "\/js\/plugins\/bootstrap\/bootstrap-modal.js" : {
      "ignoreWasSetByUser" : 0,
      "ignore" : 0,
      "hidden" : 0,
      "outputPathIsSetByUser" : 0,
      "inputAbbreviatedPath" : "\/js\/plugins\/bootstrap\/bootstrap-modal.js",
      "outputStyle" : 1,
      "syntaxCheckerStyle" : 1,
      "outputAbbreviatedPath" : "\/js\/plugins\/bootstrap\/bootstrap-modal-ck.js",
      "fileType" : 64
    },
    "\/yarpp-template-thumbnail.php" : {
      "ignoreWasSetByUser" : 0,
      "ignore" : 0,
      "hidden" : 0,
      "outputPathIsSetByUser" : 0,
      "inputAbbreviatedPath" : "\/yarpp-template-thumbnail.php",
      "outputAbbreviatedPath" : "No Output Path",
      "fileType" : 2048
    },
    "\/js\/plugins\/bootstrap\/bootstrap-popover.js" : {
      "ignoreWasSetByUser" : 0,
      "ignore" : 0,
      "hidden" : 0,
      "outputPathIsSetByUser" : 0,
      "inputAbbreviatedPath" : "\/js\/plugins\/bootstrap\/bootstrap-popover.js",
      "outputStyle" : 1,
      "syntaxCheckerStyle" : 1,
      "outputAbbreviatedPath" : "\/js\/plugins\/bootstrap\/bootstrap-popover-ck.js",
      "fileType" : 64
    },
    "\/js\/plugins\/respond.min.js" : {
      "ignoreWasSetByUser" : 0,
      "ignore" : 1,
      "hidden" : 0,
      "outputPathIsSetByUser" : 0,
      "inputAbbreviatedPath" : "\/js\/plugins\/respond.min.js",
      "outputStyle" : 1,
      "syntaxCheckerStyle" : 1,
      "outputAbbreviatedPath" : "\/js\/plugins\/respond.min-ck.js",
      "fileType" : 64
    },
    "\/rtl.css" : {
      "ignoreWasSetByUser" : 0,
      "ignore" : 0,
      "hidden" : 0,
      "outputPathIsSetByUser" : 0,
      "inputAbbreviatedPath" : "\/rtl.css",
      "outputAbbreviatedPath" : "No Output Path",
      "fileType" : 16
    },
    "\/single.php" : {
      "ignoreWasSetByUser" : 0,
      "ignore" : 0,
      "hidden" : 0,
      "outputPathIsSetByUser" : 0,
      "inputAbbreviatedPath" : "\/single.php",
      "outputAbbreviatedPath" : "No Output Path",
      "fileType" : 2048
    },
    "\/scss\/wp-admin.scss" : {
      "ignoreWasSetByUser" : 0,
      "ignore" : 0,
      "hidden" : 0,
      "outputPathIsSetByUser" : 1,
      "inputAbbreviatedPath" : "\/scss\/wp-admin.scss",
      "outputStyle" : 3,
      "shouldRunBless" : 0,
      "outputAbbreviatedPath" : "\/css\/wp-admin.css",
      "fileType" : 4,
      "debugStyle" : 0
    },
    "\/js\/plugins\/skip-link-focus-fix.js" : {
      "ignoreWasSetByUser" : 0,
      "ignore" : 0,
      "hidden" : 0,
      "outputPathIsSetByUser" : 0,
      "inputAbbreviatedPath" : "\/js\/plugins\/skip-link-focus-fix.js",
      "outputStyle" : 1,
      "syntaxCheckerStyle" : 1,
      "outputAbbreviatedPath" : "\/js\/plugins\/skip-link-focus-fix-ck.js",
      "fileType" : 64
    },
    "\/js\/plugins\/jSlabify-master\/partialslabdemo.html" : {
      "ignoreWasSetByUser" : 0,
      "ignore" : 0,
      "hidden" : 0,
      "outputPathIsSetByUser" : 0,
      "inputAbbreviatedPath" : "\/js\/plugins\/jSlabify-master\/partialslabdemo.html",
      "outputAbbreviatedPath" : "No Output Path",
      "fileType" : 2048
    },
    "\/img\/featureimage-placeholder.jpg" : {
      "ignoreWasSetByUser" : 0,
      "ignore" : 0,
      "hidden" : 0,
      "outputPathIsSetByUser" : 0,
      "inputAbbreviatedPath" : "\/img\/featureimage-placeholder.jpg",
      "processed" : 0,
      "outputAbbreviatedPath" : "\/img\/featureimage-placeholder.jpg",
      "initialSize" : 2366,
      "fileType" : 4096
    },
    "\/scss\/bootstrap\/_tooltip.scss" : {
      "ignoreWasSetByUser" : 0,
      "ignore" : 1,
      "hidden" : 0,
      "outputPathIsSetByUser" : 0,
      "inputAbbreviatedPath" : "\/scss\/bootstrap\/_tooltip.scss",
      "outputStyle" : 0,
      "shouldRunBless" : 0,
      "outputAbbreviatedPath" : "\/scss\/css\/_tooltip.css",
      "fileType" : 4,
      "debugStyle" : 0
    }
  },
  "manualImportLinks" : [
    {
      "type" : 1,
      "position" : 0,
      "linkedFileAbbreviatedPath" : "\/js\/plugins\/jquery.fitvids.js",
      "baseFileAbbreviatedPath" : "\/js\/plugins.js",
      "followForSyntaxChecking" : 1
    },
    {
      "type" : 1,
      "position" : 1,
      "linkedFileAbbreviatedPath" : "\/js\/plugins\/respond.min.js",
      "baseFileAbbreviatedPath" : "\/js\/plugins.js",
      "followForSyntaxChecking" : 1
    }
  ],
  "projectSettings" : {
    "hamlNoEscapeInAttributes" : 0,
    "kitAutoOutputPathStyle" : 0,
    "lessOutputStyle" : 0,
    "hamlAutoOutputPathReplace2" : "",
    "draggedImportConcatenationStyle" : 1,
    "jadeAutoOutputPathStyle" : 0,
    "hamlEscapeHTMLCharacters" : 0,
    "javascriptAutoOutputPathStyle" : 0,
    "hamlOutputFormat" : 2,
    "stylusAutoOutputPathReplace1" : "stylus",
    "lessStrictImports" : 0,
    "sassAutoOutputPathStyle" : 2,
    "stylusAutoOutputPathReplace2" : "css",
    "lessAutoOutputPathStyle" : 2,
    "lessIECompatibility" : 1,
    "genericWebpageFileExtensionsString" : "html, htm, shtml, shtm, xhtml, php, jsp, asp, aspx, erb, ctp",
    "lessStrictUnits" : 0,
    "lessStrictMath" : 0,
    "coffeeMinifyOutput" : 1,
    "javascriptOutputSuffix" : "-ck",
    "jadeOutputStyle" : 0,
    "coffeeAutoOutputPathStyle" : 0,
    "autoSyncProjectSettingsFile" : 1,
    "lessAutoOutputPathReplace1" : "less",
    "jadeAutoOutputPathReplace1" : "",
    "lessAutoOutputPathRelativePath" : "..\/css",
    "hamlAutoOutputPathRelativePath" : "",
    "jsCheckerReservedNamesString" : "",
    "javascriptOutputStyle" : 1,
    "stylusDebugStyle" : 0,
    "hamlUseCDATA" : 0,
    "hamlAutoOutputPathStyle" : 0,
    "sassDebugStyle" : 0,
    "hamlOutputStyle" : 0,
    "stylusAutoOutputPathRelativePath" : "..\/css",
    "jsCheckerIndent" : 4,
    "kitAutoOutputPathRelativePath" : "",
    "lessAutoOutputPathReplace2" : "css",
    "jadeAutoOutputPathReplace2" : "",
    "shouldRunBless" : 0,
    "stylusAutoOutputPathStyle" : 2,
    "coffeeCheckOutputStyle" : 0,
    "slimOutputStyle" : 1,
    "javascriptSyntaxCheckerStyle" : 1,
    "sassAutoOutputPathReplace1" : "sass",
    "slimAutoOutputPathReplace1" : "",
    "sassOutputStyle" : 0,
    "coffeeAutoOutputPathRelativePath" : "",
    "slimCompileOnly" : 0,
    "slimLogicless" : 0,
    "uglifyIndent" : 4,
    "jadeAutoOutputPathRelativePath" : "",
    "hamlUseUnixNewlines" : 0,
    "hamlAutoOutputPathReplace1" : "",
    "javascriptAutoOutputPathReplace1" : "",
    "stylusOutputStyle" : 0,
    "javascriptAutoOutputPathReplace2" : "",
    "sassAutoOutputPathRelativePath" : "..\/css",
    "coffeeAutoOutputPathReplace1" : "",
    "hamlUseDoubleQuotes" : 0,
    "coffeeAutoOutputPathReplace2" : "",
    "kitAutoOutputPathReplace1" : "",
    "uglifyReservedNamesString" : "",
    "coffeeOutputStyle" : 0,
    "slimAutoOutputPathRelativePath" : "",
    "jsHintFlags" : {
      "latedef" : 1,
      "newcap" : 1,
      "curly" : 1,
      "trailing" : 1,
      "nonew" : 1,
      "es3" : 0,
      "freeze" : 1,
      "yui" : 0,
      "mootools" : 0,
      "proto" : 0,
      "boss" : 0,
      "funcscope" : 0,
      "jquery" : 1,
      "esnext" : 0,
      "camelcase" : 0,
      "dojo" : 0,
      "strict" : 0,
      "devel" : 0,
      "wsh" : 0,
      "nonstandard" : 0,
      "asi" : 0,
      "moz" : 0,
      "rhino" : 0,
      "smarttabs" : 0,
      "lastsemic" : 0,
      "noempty" : 0,
      "eqnull" : 0,
      "eqeqeq" : 1,
      "couch" : 0,
      "evil" : 0,
      "expr" : 0,
      "immed" : 0,
      "globalstrict" : 0,
      "undef" : 1,
      "iterator" : 0,
      "prototypejs" : 0,
      "noarg" : 1,
      "supernew" : 0,
      "node" : 0,
      "unused" : 1,
      "debug" : 0,
      "bitwise" : 1,
      "notypeof" : 1,
      "white" : 0,
      "browser" : 1,
      "worker" : 0,
      "laxcomma" : 0,
      "multistr" : 0,
      "shadow" : 0,
      "sub" : 0,
      "plusplus" : 0,
      "scripturl" : 0,
      "forin" : 0,
      "loopfunc" : 0,
      "laxbreak" : 0
    },
    "jsLintFlags" : {
      "white" : 0,
      "unparam" : 0,
      "regexp" : 0,
      "nomen" : 0,
      "vars" : 0,
      "sub" : 0,
      "stupid" : 0,
      "continue" : 0,
      "bitwise" : 0,
      "newcap" : 0,
      "sloppy" : 0,
      "closure" : 0,
      "browser" : 1,
      "properties" : 0,
      "plusplus" : 0,
      "debug" : 0,
      "forin" : 0,
      "eqeq" : 0,
      "evil" : 0,
      "node" : 0,
      "rhino" : 0,
      "devel" : 0,
      "ass" : 0
    },
    "uglifyFlags" : {
      "no-mangle-functions" : 0,
      "no-mangle" : 0,
      "no-copyright" : 0,
      "no-dead-code" : 0,
      "inline-script" : 0,
      "ascii" : 0,
      "mangle-toplevel" : 0,
      "unsafe" : 0,
      "no-seqs" : 1,
      "beautify" : 0,
      "lift-vars" : 0,
      "consolidate-primitive-values" : 0,
      "no-squeeze" : 0
    },
    "sassAutoOutputPathReplace2" : "css",
    "slimAutoOutputPathReplace2" : "",
    "jadeCompileDebug" : 1,
    "slimRailsCompatible" : 0,
    "kitAutoOutputPathReplace2" : "",
    "lessRelativeURLS" : 0,
    "lessDebugStyle" : 0,
    "javascriptAutoOutputPathRelativePath" : "",
    "slimAutoOutputPathStyle" : 0
  },
  "projectAttributes" : {
    "bourbonEnabled" : 1,
    "displayValue" : "jungen_v2",
    "displayValueWasSetByUser" : 0,
    "compassEnabled" : 0
  }
}